Real World Evidence Summer School – CohortCharacteristics
…
summariseCohortAttrition

Note

Yesterday we saw the function attrition() to see the attrition of a <cohort_table>.

attrition(cdm$my_cohort)

# A tibble: 24 × 7
   cohort_definition_id number_records number_subjects reason_id reason          excluded_records excluded_subjects
                  <int>          <int>           <int>     <int> <chr>                      <int>             <int>
 1                    1            102             102         1 Initial qualif…                0                 0
 2                    1            100             100         2 Record in obse…                2                 2
 3                    1            100             100         3 Not missing re…                0                 0
 4                    1            100             100         4 Merge overlapp…                0                 0
 5                    2            363             321         1 Initial qualif…                0                 0
 6                    2            357             315         2 Record in obse…                6                 6
 7                    2            357             315         3 Not missing re…                0                 0
 8                    2            357             315         4 Merge overlapp…                0                 0
 9                    3             35              35         1 Initial qualif…                0                 0
10                    3             35              35         2 Record in obse…                0                 0
# ℹ 14 more rows
…
tidy

You can create a tidy table that you can explore with the tidy() funciton:

tidy(result)

# A tibble: 186 × 10
   cdm_name cohort_name variable_name          variable_level concept_id count percentage analysis table_name type 
   <chr>    <chr>       <chr>                  <chr>          <chr>      <int>      <dbl> <chr>    <chr>      <chr>
 1 GiBleed  anemia      Acute allergic reacti… -inf to -1     4084167        5       5.1  standard condition… event
 2 GiBleed  anemia      Acute bronchitis       -inf to -1     260139        77      78.6  standard condition… event
 3 GiBleed  anemia      Acute viral pharyngit… -inf to -1     4112343       75      76.5  standard condition… event
 4 GiBleed  anemia      Angiodysplasia of sto… -inf to -1     4310024        7       7.14 standard condition… event
 5 GiBleed  anemia      Appendicitis           -inf to -1     440448         6       6.12 standard condition… event
 6 GiBleed  anemia      Child attention defic… -inf to -1     440086         6       6.12 standard condition… event
 7 GiBleed  anemia      Concussion with loss … -inf to -1     375671         7       7.14 standard condition… event
 8 GiBleed  anemia      Cystitis               -inf to -1     195588         7       7.14 standard condition… event
 9 GiBleed  anemia      Facial laceration      -inf to -1     4156265        9       9.18 standard condition… event
10 GiBleed  anemia      First degree burn      -inf to -1     4296204        8       8.16 standard condition… event
# ℹ 176 more rows
…
