Real World Evidence Summer School – OMOP and CDMConnector
…
[1] "GiBleed"

cdmVersion(cdm)

[1] "5.3"

cdmSource(cdm)

This is a local cdm source

<cdm_table> object

cdm$person

# A tibble: 2,694 × 18
   person_id gender_concept_id year_of_birth month_of_birth day_of_birth birth_datetime      race_concept_id
 *     <int>             <int>         <int>          <int>        <int> <dttm>                        <int>
 1         6              8532          1963             12           31 1963-12-31 00:00:00            8516
 2       123              8507          1950              4           12 1950-04-12 00:00:00            8527
 3       129              8507          1974             10            7 1974-10-07 00:00:00            8527
 4        16              8532          1971             10           13 1971-10-13 00:00:00            8527
 5        65              8532          1967              3           31 1967-03-31 00:00:00            8516
 6        74              8532          1972              1            5 1972-01-05 00:00:00            8527
 7        42              8532          1909             11            2 1909-11-02 00:00:00            8527
 8       187              8507          1945              7           23 1945-07-23 00:00:00            8527
 9        18              8532          1965             11           17 1965-11-17 00:00:00            8527
10       111              8532          1975              5            2 1975-05-02 00:00:00            8527
# ℹ 2,684 more rows
# ℹ 11 more variables: ethnicity_concept_id <int>, location_id <int>, provider_id <int>, care_site_id <int>,
#   person_source_value <chr>, gender_source_value <chr>, gender_source_concept_id <int>, race_source_value <chr>,
#   race_source_concept_id <int>, ethnicity_source_value <chr>, ethnicity_source_concept_id <int>
…
Operation with tidyverse

If you are familiarised with tidyverse you can use any of the usual dplyr commands in you database tables.

cdm$drug_exposure |>
  group_by(drug_concept_id) |>
  summarise(number_persons = n_distinct(person_id)) |>
  collect() |>
  arrange(desc(number_persons))

# A tibble: 113 × 2
   drug_concept_id number_persons
             <int>          <dbl>
 1        40213227           2660
 2         1127433           2580
 3        40213160           2140
 4         1713671           2021
 5        19059056           1927
 6         1118084           1844
 7        40213296           1737
 8        40213306           1560
 9         1127078           1428
10        40229134           1393
# ℹ 103 more rows
…
cdm$drug_exposure <- cdm$drug_exposure |> 
  rename("my_id" = "person_id") |> 
  compute(name = "drug_exposure", temporary = FALSE)

Error in `newOmopTable()`:
! person_id is not present in table drug_exposure

Result model

The output of our analyses has been standardised to the <summarised_result> object.

x <- mockSummarisedResult()
x

# A tibble: 126 × 13
   result_id cdm_name group_name  group_level strata_name       strata_level  variable_name variable_level estimate_name
       <int> <chr>    <chr>       <chr>       <chr>             <chr>         <chr>         <chr>          <chr>        
 1         1 mock     cohort_name cohort1     overall           overall       number subje… <NA>           count        
 2         1 mock     cohort_name cohort1     age_group &&& sex <40 &&& Male  number subje… <NA>           count        
 3         1 mock     cohort_name cohort1     age_group &&& sex >=40 &&& Male number subje… <NA>           count        
 4         1 mock     cohort_name cohort1     age_group &&& sex <40 &&& Fema… number subje… <NA>           count        
 5         1 mock     cohort_name cohort1     age_group &&& sex >=40 &&& Fem… number subje… <NA>           count        
 6         1 mock     cohort_name cohort1     sex               Male          number subje… <NA>           count        
 7         1 mock     cohort_name cohort1     sex               Female        number subje… <NA>           count        
 8         1 mock     cohort_name cohort1     age_group         <40           number subje… <NA>           count        
 9         1 mock     cohort_name cohort1     age_group         >=40          number subje… <NA>           count        
10         1 mock     cohort_name cohort2     overall           overall       number subje… <NA>           count        
# ℹ 116 more rows
# ℹ 4 more variables: estimate_type <chr>, estimate_value <chr>, additional_name <chr>, additional_level <chr>
…
